{
  "type": "FeatureCollection",
  "features": [
    {
      "type": "Feature",
      "properties": {
        "title": "local vélo",
        "marker-symbol": "bicycle-share",
        "marker-color": "orange",
        "description": "local vélos pour le service vélo-partage développé par Valdequint"
      },
      "geometry": {
        "type": "Point",
        "coordinates": [
          5.2919018268585205,
          44.83742253364033
        ]
      }
    },
    {
      "type": "Feature",
      "properties": {
        "description": "équipement et entretien de la voiture en auto-partage… et autres petites réparations !",
        "marker-symbol": "car-repair",
        "marker-color": "green"
      },
      "geometry": {
        "type": "Point",
        "coordinates": [
          5.354493856430054,
          44.76179961487987
        ]
      }
    },
    {
      "type": "Feature",
      "properties": {
        "description": "épopée vélo-tyrex, présentation des projets mobilité de Valdequint… à vélo",
        "marker-symbol": "bicycle",
        "marker-color": "green"
      },
      "geometry": {
        "type": "Point",
        "coordinates": [
          5.282449722290039,
          44.768247813078354
        ]
      }
    },
    {
      "type": "Feature",
      "properties": {
        "description": "inauguration de nos nouveaux vélos et de notre voiture en autopartage !",
        "marker-symbol": "music",
        "marker-color": "orange"
      },
      "geometry": {
        "type": "Point",
        "coordinates": [
          5.291526317596435,
          44.83716005950042
        ]
      }
    },
    {
      "type": "Feature",
      "properties": {
        "description": "11 réunions de la commission transition énergétique ! du travail, du partage, des idées, mais aussi... des pots d'arrivées, des célébrations de bonne nouvelles, de la bonne énergie !",
        "marker-symbol": "village",
        "marker-color": "green"
      },
      "geometry": {
        "type": "Point",
        "coordinates": [
          5.292419493198395,
          44.837401611832455
        ]
      }
    },
    {
      "type": "Feature",
      "properties": {
        "description": "spectacle pianovélo",
        "marker-symbol": "music",
        "marker-color": "green"
      },
      "geometry": {
        "type": "Point",
        "coordinates": [
          5.282630771398544,
          44.768239243889155
        ]
      }
    },
    {
      "type": "Feature",
      "properties": {
        "description": "marché festif suivi du concert des Valientes Gracias !",
        "marker-symbol": "music",
        "marker-color": "orange"
      },
      "geometry": {
        "type": "Point",
        "coordinates": [
          5.260006338357925,
          44.78951167149233
        ]
      }
    },
    {
      "type": "Feature",
      "properties": {
        "description": "concerts de O dee Bretelle et de Kerchanga",
        "marker-symbol": "music",
        "marker-color": "green"
      },
      "geometry": {
        "type": "Point",
        "coordinates": [
          5.291330516338348,
          44.83708873479932
        ]
      }
    },
    {
      "type": "Feature",
      "properties": {
        "description": "concert Julie Ettabaâ",
        "marker-symbol": "music",
        "marker-color": "green"
      },
      "geometry": {
        "type": "Point",
        "coordinates": [
          5.28233841061592,
          44.768605813623715
        ]
      }
    },
    {
      "type": "Feature",
      "properties": {
        "description": "concerts L’Argousier et L’Albatros",
        "marker-symbol": "music",
        "marker-color": "green"
      },
      "geometry": {
        "type": "Point",
        "coordinates": [
          5.292544215917587,
          44.83747388713656
        ]
      }
    },
    {
      "type": "Feature",
      "properties": {
        "description": "fours à pains",
        "marker-symbol": "bakery",
        "marker-color": "orange"
      },
      "geometry": {
        "type": "Point",
        "coordinates": [
          5.283544063568115,
          44.76851060092932
        ]
      }
    },
    {
      "type": "Feature",
      "properties": {
        "description": "Maison d'Assistantes Maternelles",
        "marker-symbol": "school",
        "marker-color": "green"
      },
      "geometry": {
        "type": "Point",
        "coordinates": [
          5.302924364805222,
          44.81260963984134
        ]
      }
    },
    {
      "type": "Feature",
      "properties": {
        "description": "concerts fête des enfants",
        "marker-symbol": "music",
        "marker-color": "orange"
      },
      "geometry": {
        "type": "Point",
        "coordinates": [
          5.291507542133331,
          44.837106803731935
        ]
      }
    },
    {
      "type": "Feature",
      "properties": {
        "description": "gouter des familles, récré des parents et réunions de préparations de fêtes et de programme !",
        "marker-symbol": "confectionery",
        "marker-color": "green"
      },
      "geometry": {
        "type": "Point",
        "coordinates": [
          5.292371213436127,
          44.83740731778081
        ]
      }
    },
    {
      "type": "Feature",
      "properties": {
        "description": "ruches de l’apiculture citoyenne",
        "marker-symbol": "warehouse",
        "marker-color": "orange"
      },
      "geometry": {
        "type": "Point",
        "coordinates": [
          5.258529782295227,
          44.803317513932626
        ]
      }
    },
    {
      "type": "Feature",
      "properties": {
        "description": "verger partagé",
        "stroke": "green",
        "fill": "green",
        "fill-opacity": "0.3"
      },
      "geometry": {
        "type": "Polygon",
        "coordinates": [
          [
            [
              5.281336605548859,
              44.7690799705049
            ],
            [
              5.281199812889099,
              44.769019034898776
            ],
            [
              5.281207859516143,
              44.76883432344998
            ],
            [
              5.281559228897095,
              44.76879623854172
            ],
            [
              5.281620919704437,
              44.76897142891178
            ],
            [
              5.281336605548859,
              44.7690799705049
            ]
          ]
        ]
      }
    },
    {
      "type": "Feature",
      "properties": {
        "description": "plantation d’arbres",
        "marker-symbol": "park",
        "marker-color": "orange"
      },
      "geometry": {
        "type": "Point",
        "coordinates": [
          5.259790420532227,
          44.799739560717384
        ]
      }
    },
    {
      "type": "Feature",
      "properties": {
        "description": "terrain d’aquaponie, plantation d’arbres",
        "marker-symbol": "park",
        "marker-color": "orange"
      },
      "geometry": {
        "type": "Point",
        "coordinates": [
          5.259608030319213,
          44.799478818218695
        ]
      }
    },
    {
      "type": "Feature",
      "properties": {
        "description": "projections et évènements conviviaux",
        "marker-symbol": "cinema",
        "marker-color": "green"
      },
      "geometry": {
        "type": "Point",
        "coordinates": [
          5.292391330003738,
          44.83738164100877
        ]
      }
    }
  ]
}
